[gd_scene load_steps=2 format=2]

[ext_resource path="res://plugins/minigames/hurdle/player_hurdle.gd" type="Script" id=1]

[node name="Player" type="KinematicBody" groups=[
"players",
]]
collision_layer = 4
collision_mask = 3
script = ExtResource( 1 )

[node name="Shape" type="CollisionShape" parent="."]
transform = Transform( 1, 0, 0, 0, -4.37114e-08, -1, 0, 1, -4.37114e-08, 0, 0.4, 0 )

[node name="Model" type="Spatial" parent="."]

