[gd_scene load_steps=5 format=2]

[ext_resource path="res://plugins/minigames/dungeon_parkour/Dungeon Arena/ColorPaletteRED.png" type="Texture" id=1]
[ext_resource path="res://plugins/minigames/dungeon_parkour/Dungeon Arena/exported/Floor01Triangle.escn" type="PackedScene" id=2]

[sub_resource type="ConcavePolygonShape" id=1]
data = PoolVector3Array( 1, 1, -0.9674, 1, 1, -0.4474, -1, 1, -0.4474, -1, 1, -0.9674, -1, 1, -0.4474, -1, -1, -0.4474, -1, 1, -0.3674, -1, 1, 0.9926, -1, -1, 0.9926, 1, 1, -0.3674, 1, 1, 0.9926, -1, 1, 0.9926, -0.96, 0.96, -1.0074, 0.91, 0.96, -1.0074, 1, 1, -0.9674, -0.96, -0.91, -1.0074, -0.96, 0.96, -1.0074, -1, 1, -0.9674, -0.9849, -0.9599, -0.4074, -0.9849, 0.9849, -0.4074, -1, 1, -0.3674, -0.9849, 0.9849, -0.4074, 0.9599, 0.9849, -0.4074, 1, 1, -0.3674, -0.96, 0.96, -1.0074, -0.96, -0.91, -1.0074, 0.91, 0.96, -1.0074, -1, 1, -0.4474, 1, 1, -0.4474, 0.9599, 0.9849, -0.4074, -1, -1, -0.4474, -1, 1, -0.4474, -0.9849, 0.9849, -0.4074, -1, 1, 0.9926, 1, 1, 0.9926, -1, -1, 0.9926, -1, -1, -0.9674, -1, -1, -0.4474, 1, 1, -0.4474, 1, 1, -0.9674, 0.91, 0.96, -1.0074, -0.96, -0.91, -1.0074, -1, -1, -0.3674, -1, -1, 0.9926, 1, 1, 0.9926, 0.9599, 0.9849, -0.4074, -0.9849, -0.9599, -0.4074, -1, -1, -0.4474, 1, 1, -0.3674, -1, -1, -0.3674, -0.9849, -0.9599, -0.4074, 1, 1, -0.9674, -1, 1, -0.4474, -1, 1, -0.9674, -1, 1, -0.9674, -1, -1, -0.4474, -1, -1, -0.9674, -1, 1, -0.3674, -1, -1, 0.9926, -1, -1, -0.3674, 1, 1, -0.3674, -1, 1, 0.9926, -1, 1, -0.3674, -0.96, 0.96, -1.0074, 1, 1, -0.9674, -1, 1, -0.9674, -0.96, -0.91, -1.0074, -1, 1, -0.9674, -1, -1, -0.9674, -0.9849, -0.9599, -0.4074, -1, 1, -0.3674, -1, -1, -0.3674, -0.9849, 0.9849, -0.4074, 1, 1, -0.3674, -1, 1, -0.3674, -1, 1, -0.4474, 0.9599, 0.9849, -0.4074, -0.9849, 0.9849, -0.4074, -1, -1, -0.4474, -0.9849, 0.9849, -0.4074, -0.9849, -0.9599, -0.4074, -1, -1, -0.9674, 1, 1, -0.4474, 1, 1, -0.9674, 1, 1, -0.9674, -0.96, -0.91, -1.0074, -1, -1, -0.9674, -1, -1, -0.3674, 1, 1, 0.9926, 1, 1, -0.3674, 0.9599, 0.9849, -0.4074, -1, -1, -0.4474, 1, 1, -0.4474, 1, 1, -0.3674, -0.9849, -0.9599, -0.4074, 0.9599, 0.9849, -0.4074 )

[sub_resource type="SpatialMaterial" id=2]
params_diffuse_mode = 4
params_specular_mode = 4
albedo_texture = ExtResource( 1 )

[node name="Floor01Triangle" instance=ExtResource( 2 )]

[node name="StaticBody" type="StaticBody" parent="." index="0"]
transform = Transform( 1, 0, 0, 0, -4.37114e-08, -1, 0, 1, -4.37114e-08, 0, 0, 0 )

[node name="CollisionShape" type="CollisionShape" parent="StaticBody" index="0"]
shape = SubResource( 1 )

[node name="Floor01Triangle" parent="." index="1"]
transform = Transform( 1, 0, 0, 0, -4.37114e-08, -1, 0, 1, -4.37114e-08, 0, 0, 0 )
material/0 = SubResource( 2 )
