{
	"name": "MINIGAME_NAME",
	"scene_path": "res://plugins/minigames/bowling/minigame.tscn",
	"image_path": "res://plugins/minigames/bowling/screenshot.png",
	"translation_directory": "res://plugins/minigames/bowling/translations",
	"type": [
		"1v3"
	],
	"description": "MINIGAME_DESCRIPTION",
	"controls": [
		{
			"actions": [
				"up"
			],
			"text": "MINIGAME_ACTION_UP"
		},
		{
			"actions": [
				"down"
			],
			"text": "MINIGAME_ACTION_DOWN"
		},
		{
			"actions": [
				"left"
			],
			"text": "MINIGAME_ACTION_LEFT"
		},
		{
			"actions": [
				"right"
			],
			"text": "MINIGAME_ACTION_RIGHT"
		},
		{
			"actions": [
				"action1"
			],
			"text": "MINIGAME_ACTION_JUMP"
		},
		{
			"actions": [
				"action2"
			],
			"text": "MINIGAME_ACTION_THROW"
		}
	]
}
