{
	"name": "MINIGAME_NAME",
	"scene_path": "res://plugins/minigames/escape_from_lava/minigame.tscn",
	"image_path": "res://plugins/minigames/escape_from_lava/screenshot.png",
	"translation_directory": "res://plugins/minigames/escape_from_lava/translations",
	"type": [
		"2v2",
		"Duel",
		"FFA"
	],
	"description": "MINIGAME_DESCRIPTION",
	"controls": [
		{
			"actions": [
				"up"
			],
			"text": "MINIGAME_ACTION_UP"
		},
		{
			"actions": [
				"left"
			],
			"text": "MINIGAME_ACTION_LEFT"
		},
		{
			"actions": [
				"down"
			],
			"text": "MINIGAME_ACTION_DOWN"
		},
		{
			"actions": [
				"right"
			],
			"text": "MINIGAME_ACTION_RIGHT"
		}
	]
}