[gd_scene load_steps=2 format=2]

[ext_resource path="res://plugins/minigames/escape_from_lava/player.gd" type="Script" id=1]

[node name="Player" type="KinematicBody" groups=[
"players",
]]

input_ray_pickable = true
input_capture_on_drag = false
collision_layer = 1
collision_mask = 1
axis_lock_linear_x = false
axis_lock_linear_y = false
axis_lock_linear_z = false
axis_lock_angular_x = false
axis_lock_angular_y = false
axis_lock_angular_z = false
collision/safe_margin = 0.001
script = ExtResource( 1 )

[node name="Model" type="Spatial" parent="." index="0"]

[node name="Shape" type="CollisionShape" parent="." index="1"]

transform = Transform( 1, 0, 0, 0, 1, 0, 0, 0, 1, 0, 0.4, 0 )
shape = null
disabled = false
_sections_unfolded = [ "Transform" ]


