[gd_scene load_steps=6 format=2]

[ext_resource path="res://plugins/minigames/knock_off/player_knock_off.gd" type="Script" id=1]
[ext_resource path="res://plugins/minigames/knock_off/player_ball_material/player_knock_off_ball_material.tres" type="Material" id=2]

[sub_resource type="PhysicsMaterial" id=1]
friction = 0.9

[sub_resource type="SphereMesh" id=2]
radius = 0.5
height = 1.0

[sub_resource type="SphereShape" id=3]
radius = 0.5

[node name="Player" type="RigidBody" groups=[
"players",
]]
physics_material_override = SubResource( 1 )
can_sleep = false
script = ExtResource( 1 )

[node name="Ball" type="MeshInstance" parent="."]
mesh = SubResource( 2 )
material/0 = ExtResource( 2 )

[node name="Model" type="Spatial" parent="."]

[node name="Sphere" type="CollisionShape" parent="."]
shape = SubResource( 3 )
