[gd_resource type="DynamicFont" load_steps=2 format=2]

[ext_resource path="res://assets/fonts/IBM-Plex-Sans/IBMPlexSans-Regular.otf" type="DynamicFontData" id=1]


[resource]

size = 15
use_mipmaps = false
use_filter = false
font_data = ExtResource( 1 )
_sections_unfolded = [ "Font", "Settings" ]

