<?xml version="1.0" encoding="UTF-8" standalone="no"?>
<svg
   xmlns:dc="http://purl.org/dc/elements/1.1/"
   xmlns:cc="http://creativecommons.org/ns#"
   xmlns:rdf="http://www.w3.org/1999/02/22-rdf-syntax-ns#"
   xmlns:svg="http://www.w3.org/2000/svg"
   xmlns="http://www.w3.org/2000/svg"
   xmlns:xlink="http://www.w3.org/1999/xlink"
   xmlns:sodipodi="http://sodipodi.sourceforge.net/DTD/sodipodi-0.dtd"
   xmlns:inkscape="http://www.inkscape.org/namespaces/inkscape"
   sodipodi:docname="background.svg"
   inkscape:version="1.0 (4035a4fb49, 2020-05-01)"
   id="svg8"
   version="1.1"
   viewBox="0 0 60.999954 60.999954"
   height="60.999954mm"
   width="60.999954mm">
  <defs
     id="defs2">
    <clipPath
       id="clipPath17"
       clipPathUnits="userSpaceOnUse">
      <use
         height="100%"
         width="100%"
         id="use19"
         xlink:href="#g13"
         y="0"
         x="0" />
    </clipPath>
  </defs>
  <sodipodi:namedview
     inkscape:window-maximized="1"
     inkscape:window-y="0"
     inkscape:window-x="0"
     inkscape:window-height="742"
     inkscape:window-width="1362"
     inkscape:snap-smooth-nodes="false"
     inkscape:object-paths="true"
     inkscape:snap-intersection-paths="false"
     showgrid="true"
     inkscape:document-rotation="0"
     inkscape:current-layer="layer1"
     inkscape:document-units="mm"
     inkscape:cy="117.83897"
     inkscape:cx="108.40913"
     inkscape:zoom="1.0763594"
     inkscape:pageshadow="2"
     inkscape:pageopacity="0.0"
     borderopacity="1.0"
     bordercolor="#666666"
     pagecolor="#ffffff"
     id="base">
    <inkscape:grid
       originy="9.452902e-10"
       originx="-3.1905214e-07"
       id="grid883"
       type="xygrid" />
  </sodipodi:namedview>
  <metadata
     id="metadata5">
    <rdf:RDF>
      <cc:Work
         rdf:about="">
        <dc:format>image/svg+xml</dc:format>
        <dc:type
           rdf:resource="http://purl.org/dc/dcmitype/StillImage" />
        <dc:title></dc:title>
      </cc:Work>
    </rdf:RDF>
  </metadata>
  <g
     id="layer1"
     inkscape:groupmode="layer"
     inkscape:label="Ebene 1">
    <g
       transform="translate(-0.30216789,-0.34083366)"
       clip-path="url(#clipPath17)"
       id="g15">
      <g
         id="g13"
         inkscape:label="Clip" />
    </g>
    <path
       d="M 30.500236,0.5 A 30,30 0 0 0 0.5,30.500236 30,30 0 0 0 30.500236,60.499953 H 60.499954 V 30.500236 A 30,30 0 0 0 30.500236,0.5 Z"
       style="fill:#008fff;fill-opacity:1;stroke:#000000;stroke-width:1;stroke-miterlimit:4;stroke-dasharray:none;stroke-opacity:1"
       id="path855" />
    <circle
       r="24.390244"
       cy="29.999998"
       cx="29.999998"
       id="path863"
       style="fill:#f9f9f9;stroke:#000000;stroke-width:1.21951;stroke-miterlimit:4;stroke-dasharray:none;stroke-opacity:1" />
  </g>
</svg>
