[gd_scene load_steps=3 format=2]

[ext_resource path="res://plugins/minigames/boat_rally/pirate_kit/formationLarge_rock.gltf" type="PackedScene" id=1]

[sub_resource type="BoxShape" id=1]
extents = Vector3( 1, 2, 1 )

[node name="formationLarge_rock" groups=[
"rock",
] instance=ExtResource( 1 )]

[node name="formationLarge_rock 2" parent="." index="0"]
transform = Transform( 2, 0, 0, 0, 1.54, 0, 0, 0, 2, 1, -1, -1 )

[node name="StaticBody" type="StaticBody" parent="." index="1"]

[node name="CollisionShape" type="CollisionShape" parent="StaticBody" index="0"]
transform = Transform( 1, 0, 0, 0, 1, 0, 0, 0, 1, 0, 1, 0 )
shape = SubResource( 1 )
