[gd_scene load_steps=3 format=2]

[ext_resource path="res://plugins/minigames/harvest_food/plants/potato_rotten.escn" type="PackedScene" id=1]

[sub_resource type="Animation" id=1]
resource_name = "show"
tracks/0/type = "value"
tracks/0/path = NodePath("Icosphere:translation")
tracks/0/interp = 1
tracks/0/loop_wrap = true
tracks/0/imported = false
tracks/0/enabled = true
tracks/0/keys = {
"times": PoolRealArray( 0, 1 ),
"transitions": PoolRealArray( 1, 1 ),
"update": 0,
"values": [ Vector3( 0.05, -0.2, 0 ), Vector3( 0.05, 1.8, 0 ) ]
}
tracks/1/type = "value"
tracks/1/path = NodePath("Cylinder:translation")
tracks/1/interp = 1
tracks/1/loop_wrap = true
tracks/1/imported = false
tracks/1/enabled = true
tracks/1/keys = {
"times": PoolRealArray( 0, 1 ),
"transitions": PoolRealArray( 1, 1 ),
"update": 0,
"values": [ Vector3( 0, 0, 0 ), Vector3( 0, 2, 0 ) ]
}

[node name="Plant" index="0" instance=ExtResource( 1 )]

[node name="AnimationPlayer" type="AnimationPlayer" parent="." index="2"]
anims/show = SubResource( 1 )

