[gd_scene load_steps=2 format=2]

[ext_resource path="res://plugins/minigames/harvest_food/player.gd" type="Script" id=1]

[node name="KinematicBody" type="KinematicBody" groups=[
"players",
]]
script = ExtResource( 1 )

[node name="Model" type="Spatial" parent="."]

[node name="Shape" type="CollisionShape" parent="."]
