[gd_scene load_steps=6 format=2]

[ext_resource path="res://plugins/minigames/forest_run/Forest Arena/exported/Castle.escn" type="PackedScene" id=1]
[ext_resource path="res://plugins/minigames/forest_run/Forest Arena/ColorPaletteNormal.png" type="Texture" id=2]
[ext_resource path="res://plugins/minigames/forest_run/Forest Arena/exported/CastleDoorL.escn" type="PackedScene" id=3]
[ext_resource path="res://plugins/minigames/forest_run/Forest Arena/exported/CastleDoorR.escn" type="PackedScene" id=4]

[sub_resource type="SpatialMaterial" id=1]
resource_local_to_scene = true
params_diffuse_mode = 4
params_specular_mode = 4
albedo_texture = ExtResource( 2 )

[node name="Castle" instance=ExtResource( 1 )]

[node name="ForestCastle" parent="." index="0"]
transform = Transform( 1, 0, 0, 0, 1, 0, 0, 0, 1, 0, 0, 0 )
material/0 = SubResource( 1 )

[node name="Scene Root" parent="." index="1" instance=ExtResource( 3 )]
transform = Transform( 1, 0, 0, 0, 1, 0, 0, 0, 1, -0.75, 2, 2.25 )

[node name="ForestCastleDoorL" parent="Scene Root" index="0"]
transform = Transform( 1, 0, 0, 0, 1, 0, 0, 0, 1, 0, 0, 0 )
material/0 = SubResource( 1 )

[node name="Scene Root2" parent="." index="2" instance=ExtResource( 4 )]
transform = Transform( 1, 0, 0, 0, 1, 0, 0, 0, 1, 0.75, 2, 2.25 )

[node name="ForestCastleDoorR" parent="Scene Root2" index="0"]
transform = Transform( 1, 0, 0, 0, 1, 0, 0, 0, 1, 0, 0, 0 )
material/0 = SubResource( 1 )

[editable path="Scene Root"]

[editable path="Scene Root2"]
