[gd_scene format=2]

[node name="RichTextLabel" type="RichTextLabel"]
margin_right = 40.0
margin_bottom = 40.0
size_flags_horizontal = 3
size_flags_vertical = 4
bbcode_enabled = true
fit_content_height = true
__meta__ = {
"_edit_use_anchors_": false
}
