[gd_resource type="SpatialMaterial" load_steps=4 format=2]

[ext_resource path="res://assets/models/ice/IceC_S.jpg" type="Texture" id=1]
[ext_resource path="res://assets/models/ice/IceC_N.jpg" type="Texture" id=2]

[sub_resource type="SpatialMaterial" id=1]
params_cull_mode = 1
params_grow = true
params_grow_amount = 0.01
albedo_color = Color( 0, 0, 0, 1 )

[resource]
next_pass = SubResource( 1 )
params_diffuse_mode = 4
params_specular_mode = 4
albedo_color = Color( 0.866667, 0.866667, 0.866667, 1 )
albedo_texture = ExtResource( 1 )
metallic = 0.1
roughness = 0.25
normal_enabled = true
normal_scale = 1.0
normal_texture = ExtResource( 2 )
refraction_enabled = true
refraction_scale = 0.05
refraction_texture_channel = 0
